AN_markdown_ReProDat_pr1
…
## 
## Attaching package: 'dplyr'

## The following objects are masked from 'package:stats':
## 
##     filter, lag

## The following objects are masked from 'package:base':
## 
##     intersect, setdiff, setequal, union

data_by_date <- steps_data %>% select(date, steps) %>% group_by(date) %>% summarize(tsteps= sum(steps)) %>%na.omit()
data_by_date

## # A tibble: 53 x 2
##    date     tsteps
##    <fct>     <int>
##  1 10/10/12   9900
##  2 10/11/12  10304
##  3 10/12/12  17382
##  4 10/13/12  12426
##  5 10/14/12  15098
##  6 10/15/12  10139
##  7 10/16/12  15084
##  8 10/17/12  13452
##  9 10/18/12  10056
## 10 10/19/12  11829
## #  with 43 more rows
…
